[{
    "placeJunctionTableID": 118828,
    "placeTypeTableID": 22,
    "placeType": "Place printed",
    "placeTableID": 2334,
    "place": "Europe, United Kingdom, Scotland, North Ayrshire, Beith (inhabited place)",
    "longitude": -4.6333,
    "latitude": 55.75,
    "cartographicNote": "decimal degrees",
    "placeAuthority": "TGN",
    "authorityID": null,
    "TGNPlaceTypeID": "83002",
    "TGNPlaceType": "inhabited place",
    "TGNParentIDs": "1000003>7008591>7002444>7019091",
    "TGNParentNames": "Europe>United Kingdom>Scotland>North Ayrshire",
    "hierarchyCode": "1000003>7008591>7002444>7019091>1050438"
}]